<?xml version="1.0" encoding="UTF-8"?>
<testng-results skipped="0" failed="0" ignored="0" total="2" passed="2">
  <reporter-output>
  </reporter-output>
  <suite name="junittask.PlateauTest" duration-ms="634" started-at="2019-11-27T20:54:32Z" finished-at="2019-11-27T20:54:33Z">
    <groups>
    </groups>
    <test name="Command line test" duration-ms="634" started-at="2019-11-27T20:54:32Z" finished-at="2019-11-27T20:54:33Z">
      <class name="junittask.PlateauTest">
        <test-method status="PASS" signature="initAll()[pri:0, instance:junittask.PlateauTest@3ac3fd8b]" name="initAll" is-config="true" duration-ms="570" started-at="2019-11-27T20:54:32Z" finished-at="2019-11-27T20:54:33Z">
          <reporter-output>
          </reporter-output>
        </test-method> <!-- initAll -->
        <test-method status="PASS" signature="init()[pri:0, instance:junittask.PlateauTest@3ac3fd8b]" name="init" is-config="true" duration-ms="8" started-at="2019-11-27T20:54:33Z" finished-at="2019-11-27T20:54:33Z">
          <reporter-output>
          </reporter-output>
        </test-method> <!-- init -->
        <test-method status="PASS" signature="plateauWorksProperlyTest()[pri:0, instance:junittask.PlateauTest@3ac3fd8b]" name="plateauWorksProperlyTest" duration-ms="39" started-at="2019-11-27T20:54:33Z" finished-at="2019-11-27T20:54:33Z">
          <reporter-output>
          </reporter-output>
        </test-method> <!-- plateauWorksProperlyTest -->
        <test-method status="PASS" signature="tearDown()[pri:0, instance:junittask.PlateauTest@3ac3fd8b]" name="tearDown" is-config="true" duration-ms="1" started-at="2019-11-27T20:54:33Z" finished-at="2019-11-27T20:54:33Z">
          <reporter-output>
          </reporter-output>
        </test-method> <!-- tearDown -->
        <test-method status="PASS" signature="init()[pri:0, instance:junittask.PlateauTest@3ac3fd8b]" name="init" is-config="true" duration-ms="1" started-at="2019-11-27T20:54:33Z" finished-at="2019-11-27T20:54:33Z">
          <reporter-output>
          </reporter-output>
        </test-method> <!-- init -->
        <test-method status="PASS" signature="testMethod2()[pri:0, instance:junittask.PlateauTest@3ac3fd8b]" name="testMethod2" duration-ms="1" started-at="2019-11-27T20:54:33Z" finished-at="2019-11-27T20:54:33Z">
          <reporter-output>
          </reporter-output>
        </test-method> <!-- testMethod2 -->
        <test-method status="PASS" signature="tearDown()[pri:0, instance:junittask.PlateauTest@3ac3fd8b]" name="tearDown" is-config="true" duration-ms="1" started-at="2019-11-27T20:54:33Z" finished-at="2019-11-27T20:54:33Z">
          <reporter-output>
          </reporter-output>
        </test-method> <!-- tearDown -->
        <test-method status="PASS" signature="tearDownAll()[pri:0, instance:junittask.PlateauTest@3ac3fd8b]" name="tearDownAll" is-config="true" duration-ms="0" started-at="2019-11-27T20:54:33Z" finished-at="2019-11-27T20:54:33Z">
          <reporter-output>
          </reporter-output>
        </test-method> <!-- tearDownAll -->
      </class> <!-- junittask.PlateauTest -->
    </test> <!-- Command line test -->
  </suite> <!-- junittask.PlateauTest -->
</testng-results>
